%YAML 1.1
%TAG !u! tag:unity3d.com,2011:
--- !u!114 &11400000
MonoBehaviour:
  m_ObjectHideFlags: 0
  m_CorrespondingSourceObject: {fileID: 0}
  m_PrefabInstance: {fileID: 0}
  m_PrefabAsset: {fileID: 0}
  m_GameObject: {fileID: 0}
  m_Enabled: 1
  m_EditorHideFlags: 0
  m_Script: {fileID: 11500000, guid: 18874ef0e3be02b4da9029eb03d1902e, type: 3}
  m_Name: Scene1
  m_EditorClassIdentifier: 
  Option1: Hi Sam, how are things?
  Option2: Your favourite customer is here!
  Response1: Thank you for asking, Alex. Business is well.
  Response2: Good to see you, Alex.
  IsCommonResponsesAvailable: 1
  CommonResponses:
  - Sam@Please wait while I make your regular.
  - Sam@Here you go. The Alex Special, only available in Evermoor.
